^C:\USERS\МАРИЯ\DESKTOP\СРЁША\GAMEDEV\C++\HW_18\HW_18.2.1\HW_18.2.1.CPP
C:\USERS\Мария\DESKTOP\Срёша\GAMEDEV\C++\HW_18\HW_18.2.1\DEBUG\VC142.PDB
C:\USERS\Мария\DESKTOP\Срёша\GAMEDEV\C++\HW_18\HW_18.2.1\DEBUG\VC142.IDB
C:\USERS\Мария\DESKTOP\Срёша\GAMEDEV\C++\HW_18\HW_18.2.1\DEBUG\HW_18.2.1.OBJ
